<?xml version="1.0" standalone="no"?>
<!DOCTYPE svg PUBLIC "-//W3C//DTD SVG 20010904//EN"
 "http://www.w3.org/TR/2001/REC-SVG-20010904/DTD/svg10.dtd">
<svg version="1.0" xmlns="http://www.w3.org/2000/svg"
 width="512.000000pt" height="512.000000pt" viewBox="0 0 512.000000 512.000000"
 preserveAspectRatio="xMidYMid meet">
<metadata>
Created by potrace 1.11, written by Peter Selinger 2001-2013
</metadata>
<g transform="translate(0.000000,512.000000) scale(0.100000,-0.100000)"
fill="#000000" stroke="none">
<path d="M2289 5056 c-2 -2 -65 -6 -139 -10 -74 -3 -146 -8 -159 -11 -12 -2
-57 -7 -100 -10 -42 -3 -87 -7 -101 -9 -14 -3 -52 -8 -85 -11 -59 -6 -236 -31
-285 -40 -14 -3 -41 -8 -60 -11 -194 -32 -484 -102 -735 -180 l-180 -56 -23
-71 c-69 -213 -122 -405 -158 -567 -10 -44 -9 -40 -17 -75 -12 -51 -61 -320
-72 -400 -4 -22 -8 -50 -10 -61 -2 -12 -6 -48 -10 -80 -4 -33 -8 -68 -10 -79
-2 -11 -6 -56 -10 -100 -4 -44 -8 -91 -10 -104 -20 -122 -27 -798 -12 -1026
13 -195 20 -269 32 -365 2 -19 7 -57 10 -85 9 -70 15 -114 19 -144 3 -14 8
-46 11 -71 4 -25 9 -54 11 -65 3 -11 11 -56 19 -100 8 -44 17 -90 20 -103 3
-12 7 -32 10 -45 8 -35 29 -132 30 -137 1 -3 5 -21 9 -40 15 -67 108 -392 135
-468 l27 -77 140 -47 c275 -91 772 -203 1034 -233 30 -3 66 -8 80 -10 53 -8
195 -23 294 -31 206 -16 304 -19 591 -19 290 1 555 9 612 19 10 2 52 7 93 10
41 4 89 9 105 11 17 3 55 7 85 10 30 3 66 7 80 10 14 2 45 7 70 10 85 12 325
56 440 81 114 25 401 99 430 111 8 3 20 7 27 9 7 1 56 17 109 34 111 37 100
23 160 216 31 103 116 420 128 479 2 11 9 40 14 65 6 25 13 62 16 82 3 21 10
57 15 80 5 24 12 63 16 88 3 25 8 52 10 60 4 17 9 52 25 170 6 47 12 99 15
115 2 17 7 66 11 110 3 44 8 94 10 110 13 134 19 318 19 595 0 333 -5 459 -30
705 -10 98 -42 344 -50 387 -3 12 -7 40 -10 63 -3 22 -9 49 -12 60 -3 11 -7
29 -9 40 -3 20 -6 38 -25 135 -32 165 -108 450 -170 635 l-34 100 -80 28 c-44
15 -136 43 -205 63 -69 19 -147 42 -175 50 -27 7 -61 16 -75 18 -14 2 -52 11
-85 19 -146 38 -527 103 -710 122 -27 2 -70 7 -95 10 -42 5 -102 10 -240 21
-73 5 -775 15 -781 10z"/>
</g>
</svg>
